\relax 
\thanksnewlabel{t1thanks}{{\TextOrMath  {\textasteriskcentered }{*}}{1}}
\thanksnewlabel{e1@email}{{???}{1}}
\gdef\author@num{1}
\@writefile{toc}{\contentsline {section}{\numberline {1}Introduction}{1}}
\@writefile{toc}{\contentsline {section}{\numberline {2}Weight Ball Divergence}{1}}
\@writefile{toc}{\contentsline {section}{\numberline {3}Simulation}{1}}
\@writefile{toc}{\contentsline {section}{\numberline {4}Conclusion}{1}}
