\relax 
\providecommand\hyper@newdestlabel[2]{}
\providecommand\HyperFirstAtBeginDocument{\AtBeginDocument}
\HyperFirstAtBeginDocument{\ifx\hyper@anchor\@undefined
\global\let\oldcontentsline\contentsline
\gdef\contentsline#1#2#3#4{\oldcontentsline{#1}{#2}{#3}}
\global\let\oldnewlabel\newlabel
\gdef\newlabel#1#2{\newlabelxx{#1}#2}
\gdef\newlabelxx#1#2#3#4#5#6{\oldnewlabel{#1}{{#2}{#3}}}
\AtEndDocument{\ifx\hyper@anchor\@undefined
\let\contentsline\oldcontentsline
\let\newlabel\oldnewlabel
\fi}
\fi}
\global\let\hyper@last\relax 
\gdef\HyperFirstAtBeginDocument#1{#1}
\providecommand\HyField@AuxAddToFields[1]{}
\providecommand\HyField@AuxAddToCoFields[2]{}
\@writefile{lot}{\contentsline {table}{\numberline {1}{\ignorespaces Type-I Error rates of the tests based on distance correlation, HHG and ball correlation with two different weights for Infinite dimension and Manifold cases}}{1}{table.1}}
\newlabel{Simulation2-T}{{1}{1}{Type-I Error rates of the tests based on distance correlation, HHG and ball correlation with two different weights for Infinite dimension and Manifold cases}{table.1}{}}
\gdef\hy@title{A sample document could be very long could be very long\thanksref {T1}}
\thanksnewlabel{T1thanks}{{\TextOrMath  {\textasteriskcentered }{*}}{2}}
\thanksnewlabel{e1@email}{{first@somewhere.com}{2}}
\thanksnewlabel{e2@email}{{second@somewhere.com}{2}}
\thanksnewlabel{e3@email}{{third@somewhere.com}{2}}
\thanksnewlabel{u1@url}{{www.foo.com}{2}}
\thanksnewlabel{t1thanks}{{\TextOrMath  {\textdagger }{\dagger }}{2}}
\thanksnewlabel{t2thanks}{{\TextOrMath  {\textdaggerdbl }{\ddagger }}{2}}
\thanksnewlabel{t3thanks}{{\TextOrMath  {\textsection }{\mathsection }}{2}}
\gdef\hy@author{First Author, Second Author and Third Author  }
\gdef\hy@subject{Statistics and Its Interface0000Volume 0Number 01--8}
\gdef\hy@keywords{00K00, 00K01, 00K02sample, \LaTeXe  }
\gdef\author@num{3}
\gdef\hy@subject{Statistics and Its Interface, 0000, Volume 0, Number 0, 1--8}
\@writefile{toc}{\contentsline {section}{\numberline {1}Ordinary text}{2}{section.1}}
\@writefile{toc}{\contentsline {section}{\numberline {2}Notes}{2}{section.2}}
\@writefile{toc}{\contentsline {section}{\numberline {3}Displayed text}{2}{section.3}}
\citation{r1,r2,r3}
\citation{r1,r2,r3,r4}
\citation{r1}
\citation{r4}
\citation{r1}
\citation{r4}
\citation{r4}
\citation{r2,r3,r4}
\@writefile{toc}{\contentsline {section}{\numberline {4}Tables and figures}{3}{section.4}}
\newlabel{cs}{{1}{3}{Tables and figures}{equation.4.1}{}}
\@writefile{lot}{\contentsline {table}{\numberline {2}{\ignorespaces The spherical case ($I_1=0$, $I_2=0$)}}{4}{table.2}}
\newlabel{sphericcase}{{2}{4}{The spherical case ($I_1=0$, $I_2=0$)}{table.2}{}}
\@writefile{lot}{\contentsline {table}{\numberline {3}{\ignorespaces Parameter sets used by Bajpai \& Reu\ss are not detailed sufficiently to permit a similar analysis}}{4}{table.3}}
\newlabel{parset}{{3}{4}{Parameter sets used by Bajpai \& Reu\ss are not detailed sufficiently to permit a similar analysis}{table.3}{}}
\@writefile{lof}{\contentsline {figure}{\numberline {1}{\ignorespaces }}{4}{figure.1}}
\newlabel{penG}{{1}{4}{}{figure.1}{}}
\@writefile{toc}{\contentsline {section}{\numberline {5}Headings}{4}{section.5}}
\@writefile{toc}{\contentsline {subsection}{\numberline {5.1}Subsection}{4}{subsection.5.1}}
\@writefile{toc}{\contentsline {subsubsection}{\numberline {5.1.1}Subsubsection}{4}{subsubsection.5.1.1}}
\@writefile{toc}{\contentsline {section}{\numberline {6}Equations and the like}{4}{section.6}}
\newlabel{ccs}{{2}{4}{Equations and the like}{equation.6.2}{}}
\bibcite{r1}{{1}{}{{}}{{}}}
\bibcite{r2}{{2}{}{{}}{{}}}
\bibcite{r3}{{3}{}{{}}{{}}}
\bibcite{r4}{{4}{}{{}}{{}}}
\providecommand\NAT@force@numbers{}\NAT@force@numbers
\@writefile{toc}{\contentsline {section}{\numberline {A}Appendix section}{5}{appendix.A}}
\newlabel{app}{{A}{5}{Appendix section}{appendix.A}{}}
\@writefile{toc}{\contentsline {subsection}{\numberline {A.1}Appendix subsection}{5}{subsection.A.1}}
\newlabel{path}{{11}{5}{Appendix subsection}{equation.A.11}{}}
\@writefile{toc}{\contentsline {section}{Acknowledgements}{5}{section*.2}}
\@writefile{toc}{\contentsline {section}{References}{5}{section*.4}}
\@writefile{toc}{\contentsline {section}{Authors' addresses}{5}{section*.5}}
