%!PS-Adobe-3.0 EPSF-3.0
%%DocumentNeededResources: font Helvetica
%%+ font Helvetica-Bold
%%+ font Helvetica-Oblique
%%+ font Helvetica-BoldOblique
%%+ font Symbol
%%Title: R Graphics Output
%%Creator: R Software
%%Pages: (atend)
%%BoundingBox: 0 0 606 376
%%EndComments
%%BeginProlog
/bp  { gs sRGB gs } def
% begin .ps.prolog
/gs  { gsave } bind def
/gr  { grestore } bind def
/ep  { showpage gr gr } bind def
/m   { moveto } bind def
/l  { rlineto } bind def
/np  { newpath } bind def
/cp  { closepath } bind def
/f   { fill } bind def
/o   { stroke } bind def
/c   { newpath 0 360 arc } bind def
/r   { 4 2 roll moveto 1 copy 3 -1 roll exch 0 exch rlineto 0 rlineto -1 mul 0 exch rlineto closepath } bind def
/p1  { stroke } bind def
/p2  { gsave bg fill grestore newpath } bind def
/p3  { gsave bg fill grestore stroke } bind def
/p6  { gsave bg eofill grestore newpath } bind def
/p7  { gsave bg eofill grestore stroke } bind def
/t   { 5 -2 roll moveto gsave rotate
       1 index stringwidth pop
       mul neg 0 rmoveto show grestore } bind def
/ta  { 4 -2 roll moveto gsave rotate show } bind def
/tb  { 2 -1 roll 0 rmoveto show } bind def
/cl  { grestore gsave newpath 3 index 3 index moveto 1 index
       4 -1 roll lineto  exch 1 index lineto lineto
       closepath clip newpath } bind def
/rgb { setrgbcolor } bind def
/s   { scalefont setfont } bind def
% end   .ps.prolog
/sRGB { [ /CIEBasedABC
          << /DecodeLMN
               [ { dup 0.03928 le
                        {12.92321 div}
                        {0.055 add 1.055 div 2.4 exp }
                     ifelse
                 } bind dup dup
               ]
             /MatrixLMN [0.412457 0.212673 0.019334
                         0.357576 0.715152 0.119192
                         0.180437 0.072175 0.950301]
             /WhitePoint [0.9505 1.0 1.0890]
           >>
         ] setcolorspace } bind def
/srgb { setcolor } bind def
%%IncludeResource: font Helvetica
/Helvetica findfont
dup length dict begin
  {1 index /FID ne {def} {pop pop} ifelse} forall
  /Encoding ISOLatin1Encoding def
  currentdict
  end
/Font1 exch definefont pop
%%IncludeResource: font Helvetica-Bold
/Helvetica-Bold findfont
dup length dict begin
  {1 index /FID ne {def} {pop pop} ifelse} forall
  /Encoding ISOLatin1Encoding def
  currentdict
  end
/Font2 exch definefont pop
%%IncludeResource: font Helvetica-Oblique
/Helvetica-Oblique findfont
dup length dict begin
  {1 index /FID ne {def} {pop pop} ifelse} forall
  /Encoding ISOLatin1Encoding def
  currentdict
  end
/Font3 exch definefont pop
%%IncludeResource: font Helvetica-BoldOblique
/Helvetica-BoldOblique findfont
dup length dict begin
  {1 index /FID ne {def} {pop pop} ifelse} forall
  /Encoding ISOLatin1Encoding def
  currentdict
  end
/Font4 exch definefont pop
%%IncludeResource: font Symbol
/Symbol findfont
dup length dict begin
  {1 index /FID ne {def} {pop pop} ifelse} forall
  currentdict
  end
/Font5 exch definefont pop
%%EndProlog
%%Page: 1 1
bp
0.00 0.00 606.00 375.75 cl
0.00 0.00 606.00 375.75 cl
0.00 0.00 606.00 375.75 cl
0.00 0.00 606.00 375.75 cl
0.00 0.00 606.00 375.75 cl
0.00 0.00 606.00 375.75 cl
/bg { 1 1 1 srgb } def
1 1 1 srgb
1.07 setlinewidth
[] 0 setdash
1 setlinecap
1 setlinejoin
10.00 setmiterlimit
0.00 0.00 606.00 375.75 r p3
0.00 0.00 606.00 375.75 cl
79.79 68.55 310.79 343.56 cl
/bg { 0.9216 0.9216 0.9216 srgb } def
79.79 68.55 231.00 275.01 r p2
1 1 1 srgb
0.53 setlinewidth
[] 0 setdash
0 setlinecap
1 setlinejoin
10.00 setmiterlimit
np
79.79 115.78 m
231.00 0 l
o
np
79.79 185.22 m
231.00 0 l
o
np
79.79 254.67 m
231.00 0 l
o
np
79.79 324.12 m
231.00 0 l
o
np
95.19 68.55 m
0 275.01 l
o
np
134.38 68.55 m
0 275.01 l
o
np
173.57 68.55 m
0 275.01 l
o
np
212.77 68.55 m
0 275.01 l
o
np
251.96 68.55 m
0 275.01 l
o
np
291.15 68.55 m
0 275.01 l
o
1.07 setlinewidth
[] 0 setdash
np
79.79 81.05 m
231.00 0 l
o
np
79.79 150.50 m
231.00 0 l
o
np
79.79 219.95 m
231.00 0 l
o
np
79.79 289.39 m
231.00 0 l
o
np
114.79 68.55 m
0 275.01 l
o
np
153.98 68.55 m
0 275.01 l
o
np
193.17 68.55 m
0 275.01 l
o
np
232.36 68.55 m
0 275.01 l
o
np
271.55 68.55 m
0 275.01 l
o
np
310.75 68.55 m
0 275.01 l
o
/bg { 0.9725 0.4627 0.4275 srgb } def
90.29 81.05 4.20 55.56 r p2
94.49 81.05 4.20 55.56 r p2
98.69 81.05 4.20 111.12 r p2
102.89 81.05 4.20 27.78 r p2
107.09 81.05 4.20 0.00 r p2
111.29 81.05 4.20 27.78 r p2
115.49 81.05 4.20 0.00 r p2
119.69 81.05 4.20 0.00 r p2
123.89 81.05 4.20 27.78 r p2
128.09 81.05 4.20 0.00 r p2
132.29 81.05 4.20 27.78 r p2
136.49 81.05 4.20 83.34 r p2
140.69 81.05 4.20 0.00 r p2
144.89 81.05 4.20 0.00 r p2
149.09 81.05 4.20 0.00 r p2
153.29 81.05 4.20 27.78 r p2
157.49 81.05 4.20 0.00 r p2
161.69 81.05 4.20 27.78 r p2
165.89 81.05 4.20 0.00 r p2
170.09 81.05 4.20 0.00 r p2
174.29 81.05 4.20 0.00 r p2
178.49 81.05 4.20 83.34 r p2
182.69 81.05 4.20 0.00 r p2
186.89 81.05 4.20 55.56 r p2
191.09 81.05 4.20 0.00 r p2
195.29 81.05 4.20 0.00 r p2
199.49 81.05 4.20 0.00 r p2
203.69 81.05 4.20 0.00 r p2
207.89 81.05 4.20 0.00 r p2
212.09 81.05 4.20 166.67 r p2
216.29 81.05 4.20 0.00 r p2
220.49 81.05 4.20 83.34 r p2
224.69 81.05 4.20 0.00 r p2
228.89 81.05 4.20 0.00 r p2
233.09 81.05 4.20 0.00 r p2
237.29 81.05 4.20 0.00 r p2
241.49 81.05 4.20 0.00 r p2
245.69 81.05 4.20 0.00 r p2
249.89 81.05 4.20 83.34 r p2
254.09 81.05 4.20 0.00 r p2
258.29 81.05 4.20 0.00 r p2
262.49 81.05 4.20 0.00 r p2
266.69 81.05 4.20 0.00 r p2
270.89 81.05 4.20 83.34 r p2
275.09 81.05 4.20 0.00 r p2
279.29 81.05 4.20 0.00 r p2
283.49 81.05 4.20 0.00 r p2
287.69 81.05 4.20 0.00 r p2
291.89 81.05 4.20 0.00 r p2
296.09 81.05 4.20 27.78 r p2
/bg { 0 0.7490 0.7686 srgb } def
90.29 81.05 4.20 55.56 r p2
94.49 81.05 4.20 27.78 r p2
98.69 81.05 4.20 138.89 r p2
102.89 81.05 4.20 55.56 r p2
107.09 81.05 4.20 27.78 r p2
111.29 81.05 4.20 83.34 r p2
115.49 81.05 4.20 0.00 r p2
119.69 81.05 4.20 166.67 r p2
123.89 81.05 4.20 55.56 r p2
128.09 81.05 4.20 0.00 r p2
132.29 81.05 4.20 83.34 r p2
136.49 81.05 4.20 83.34 r p2
140.69 81.05 4.20 0.00 r p2
144.89 81.05 4.20 83.34 r p2
149.09 81.05 4.20 0.00 r p2
153.29 81.05 4.20 0.00 r p2
157.49 81.05 4.20 0.00 r p2
161.69 81.05 4.20 83.34 r p2
165.89 81.05 4.20 0.00 r p2
170.09 81.05 4.20 0.00 r p2
174.29 81.05 4.20 0.00 r p2
178.49 81.05 4.20 83.34 r p2
182.69 81.05 4.20 0.00 r p2
186.89 81.05 4.20 27.78 r p2
191.09 81.05 4.20 0.00 r p2
195.29 81.05 4.20 0.00 r p2
199.49 81.05 4.20 111.12 r p2
203.69 81.05 4.20 0.00 r p2
207.89 81.05 4.20 0.00 r p2
212.09 81.05 4.20 0.00 r p2
216.29 81.05 4.20 0.00 r p2
220.49 81.05 4.20 0.00 r p2
224.69 81.05 4.20 0.00 r p2
228.89 81.05 4.20 0.00 r p2
233.09 81.05 4.20 27.78 r p2
237.29 81.05 4.20 0.00 r p2
241.49 81.05 4.20 0.00 r p2
245.69 81.05 4.20 0.00 r p2
249.89 81.05 4.20 0.00 r p2
254.09 81.05 4.20 0.00 r p2
258.29 81.05 4.20 0.00 r p2
262.49 81.05 4.20 0.00 r p2
266.69 81.05 4.20 0.00 r p2
270.89 81.05 4.20 0.00 r p2
275.09 81.05 4.20 0.00 r p2
279.29 81.05 4.20 0.00 r p2
283.49 81.05 4.20 0.00 r p2
287.69 81.05 4.20 0.00 r p2
291.89 81.05 4.20 0.00 r p2
296.09 81.05 4.20 0.00 r p2
0.00 0.00 606.00 375.75 cl
316.27 68.55 547.27 343.56 cl
/bg { 0.9216 0.9216 0.9216 srgb } def
316.27 68.55 231.00 275.01 r p2
1 1 1 srgb
0.53 setlinewidth
[] 0 setdash
0 setlinecap
1 setlinejoin
10.00 setmiterlimit
np
316.27 115.78 m
231.00 0 l
o
np
316.27 185.22 m
231.00 0 l
o
np
316.27 254.67 m
231.00 0 l
o
np
316.27 324.12 m
231.00 0 l
o
np
331.67 68.55 m
0 275.01 l
o
np
370.86 68.55 m
0 275.01 l
o
np
410.05 68.55 m
0 275.01 l
o
np
449.24 68.55 m
0 275.01 l
o
np
488.44 68.55 m
0 275.01 l
o
np
527.63 68.55 m
0 275.01 l
o
1.07 setlinewidth
[] 0 setdash
np
316.27 81.05 m
231.00 0 l
o
np
316.27 150.50 m
231.00 0 l
o
np
316.27 219.95 m
231.00 0 l
o
np
316.27 289.39 m
231.00 0 l
o
np
351.26 68.55 m
0 275.01 l
o
np
390.46 68.55 m
0 275.01 l
o
np
429.65 68.55 m
0 275.01 l
o
np
468.84 68.55 m
0 275.01 l
o
np
508.03 68.55 m
0 275.01 l
o
np
547.23 68.55 m
0 275.01 l
o
/bg { 0.9725 0.4627 0.4275 srgb } def
326.77 81.05 4.20 0.00 r p2
330.97 81.05 4.20 0.00 r p2
335.17 81.05 4.20 0.00 r p2
339.37 81.05 4.20 0.00 r p2
343.57 81.05 4.20 27.78 r p2
347.77 81.05 4.20 55.56 r p2
351.97 81.05 4.20 55.56 r p2
356.17 81.05 4.20 0.00 r p2
360.37 81.05 4.20 250.01 r p2
364.57 81.05 4.20 138.89 r p2
368.77 81.05 4.20 27.78 r p2
372.97 81.05 4.20 222.23 r p2
377.17 81.05 4.20 0.00 r p2
381.37 81.05 4.20 138.89 r p2
385.57 81.05 4.20 0.00 r p2
389.77 81.05 4.20 83.34 r p2
393.97 81.05 4.20 0.00 r p2
398.17 81.05 4.20 0.00 r p2
402.37 81.05 4.20 0.00 r p2
406.57 81.05 4.20 0.00 r p2
410.77 81.05 4.20 0.00 r p2
414.97 81.05 4.20 55.56 r p2
419.17 81.05 4.20 0.00 r p2
423.37 81.05 4.20 0.00 r p2
427.57 81.05 4.20 0.00 r p2
431.77 81.05 4.20 0.00 r p2
435.97 81.05 4.20 0.00 r p2
440.17 81.05 4.20 0.00 r p2
444.37 81.05 4.20 0.00 r p2
448.57 81.05 4.20 0.00 r p2
452.77 81.05 4.20 0.00 r p2
456.97 81.05 4.20 0.00 r p2
461.17 81.05 4.20 0.00 r p2
465.37 81.05 4.20 0.00 r p2
469.57 81.05 4.20 0.00 r p2
473.77 81.05 4.20 0.00 r p2
477.97 81.05 4.20 0.00 r p2
482.17 81.05 4.20 0.00 r p2
486.37 81.05 4.20 0.00 r p2
490.57 81.05 4.20 0.00 r p2
494.77 81.05 4.20 0.00 r p2
498.97 81.05 4.20 0.00 r p2
503.17 81.05 4.20 0.00 r p2
507.37 81.05 4.20 0.00 r p2
511.57 81.05 4.20 0.00 r p2
515.77 81.05 4.20 0.00 r p2
519.97 81.05 4.20 0.00 r p2
524.17 81.05 4.20 0.00 r p2
528.37 81.05 4.20 0.00 r p2
532.57 81.05 4.20 0.00 r p2
/bg { 0 0.7490 0.7686 srgb } def
326.77 81.05 4.20 0.00 r p2
330.97 81.05 4.20 0.00 r p2
335.17 81.05 4.20 0.00 r p2
339.37 81.05 4.20 0.00 r p2
343.57 81.05 4.20 0.00 r p2
347.77 81.05 4.20 55.56 r p2
351.97 81.05 4.20 55.56 r p2
356.17 81.05 4.20 166.67 r p2
360.37 81.05 4.20 83.34 r p2
364.57 81.05 4.20 27.78 r p2
368.77 81.05 4.20 83.34 r p2
372.97 81.05 4.20 111.12 r p2
377.17 81.05 4.20 0.00 r p2
381.37 81.05 4.20 194.45 r p2
385.57 81.05 4.20 0.00 r p2
389.77 81.05 4.20 55.56 r p2
393.97 81.05 4.20 0.00 r p2
398.17 81.05 4.20 111.12 r p2
402.37 81.05 4.20 0.00 r p2
406.57 81.05 4.20 0.00 r p2
410.77 81.05 4.20 0.00 r p2
414.97 81.05 4.20 111.12 r p2
419.17 81.05 4.20 0.00 r p2
423.37 81.05 4.20 0.00 r p2
427.57 81.05 4.20 0.00 r p2
431.77 81.05 4.20 0.00 r p2
435.97 81.05 4.20 111.12 r p2
440.17 81.05 4.20 0.00 r p2
444.37 81.05 4.20 0.00 r p2
448.57 81.05 4.20 0.00 r p2
452.77 81.05 4.20 0.00 r p2
456.97 81.05 4.20 0.00 r p2
461.17 81.05 4.20 0.00 r p2
465.37 81.05 4.20 0.00 r p2
469.57 81.05 4.20 27.78 r p2
473.77 81.05 4.20 0.00 r p2
477.97 81.05 4.20 0.00 r p2
482.17 81.05 4.20 0.00 r p2
486.37 81.05 4.20 0.00 r p2
490.57 81.05 4.20 0.00 r p2
494.77 81.05 4.20 0.00 r p2
498.97 81.05 4.20 0.00 r p2
503.17 81.05 4.20 0.00 r p2
507.37 81.05 4.20 0.00 r p2
511.57 81.05 4.20 0.00 r p2
515.77 81.05 4.20 0.00 r p2
519.97 81.05 4.20 0.00 r p2
524.17 81.05 4.20 0.00 r p2
528.37 81.05 4.20 0.00 r p2
532.57 81.05 4.20 0.00 r p2
0.00 0.00 606.00 375.75 cl
79.79 343.56 310.79 370.27 cl
79.79 343.56 310.79 370.27 cl
/bg { 0.8510 0.8510 0.8510 srgb } def
79.79 343.56 231.00 26.71 r p2
/Font2 findfont 22 s
0.1020 0.1020 0.1020 srgb
195.29 349.02 (Ingredient b) .5 0 t
79.79 343.56 310.79 370.27 cl
79.79 343.56 310.79 370.27 cl
0.00 0.00 606.00 375.75 cl
316.27 343.56 547.27 370.27 cl
316.27 343.56 547.27 370.27 cl
/bg { 0.8510 0.8510 0.8510 srgb } def
316.27 343.56 231.00 26.71 r p2
/Font2 findfont 22 s
0.1020 0.1020 0.1020 srgb
431.77 349.02 (Ingredient e) .5 0 t
316.27 343.56 547.27 370.27 cl
316.27 343.56 547.27 370.27 cl
0.00 0.00 606.00 375.75 cl
0.00 0.00 606.00 375.75 cl
0.00 0.00 606.00 375.75 cl
0.00 0.00 606.00 375.75 cl
0.00 0.00 606.00 375.75 cl
0.00 0.00 606.00 375.75 cl
0.00 0.00 606.00 375.75 cl
0.00 0.00 606.00 375.75 cl
0.00 0.00 606.00 375.75 cl
0.00 0.00 606.00 375.75 cl
0.2000 0.2000 0.2000 srgb
1.07 setlinewidth
[] 0 setdash
0 setlinecap
1 setlinejoin
10.00 setmiterlimit
np
114.79 65.81 m
0 2.74 l
o
np
153.98 65.81 m
0 2.74 l
o
np
193.17 65.81 m
0 2.74 l
o
np
232.36 65.81 m
0 2.74 l
o
np
271.55 65.81 m
0 2.74 l
o
np
310.75 65.81 m
0 2.74 l
o
0.00 0.00 606.00 375.75 cl
0.00 0.00 606.00 375.75 cl
/Font2 findfont 20 s
0.3020 0.3020 0.3020 srgb
114.79 49.26 (0.1) .5 0 t
153.98 49.26 (0.2) .5 0 t
193.17 49.26 (0.3) .5 0 t
232.36 49.26 (0.4) .5 0 t
271.55 49.26 (0.5) .5 0 t
310.75 49.26 (0.6) .5 0 t
0.00 0.00 606.00 375.75 cl
0.00 0.00 606.00 375.75 cl
0.00 0.00 606.00 375.75 cl
0.00 0.00 606.00 375.75 cl
0.00 0.00 606.00 375.75 cl
0.00 0.00 606.00 375.75 cl
0.00 0.00 606.00 375.75 cl
0.00 0.00 606.00 375.75 cl
0.2000 0.2000 0.2000 srgb
1.07 setlinewidth
[] 0 setdash
0 setlinecap
1 setlinejoin
10.00 setmiterlimit
np
351.26 65.81 m
0 2.74 l
o
np
390.46 65.81 m
0 2.74 l
o
np
429.65 65.81 m
0 2.74 l
o
np
468.84 65.81 m
0 2.74 l
o
np
508.03 65.81 m
0 2.74 l
o
np
547.23 65.81 m
0 2.74 l
o
0.00 0.00 606.00 375.75 cl
0.00 0.00 606.00 375.75 cl
/Font2 findfont 20 s
0.3020 0.3020 0.3020 srgb
351.26 49.26 (0.1) .5 0 t
390.46 49.26 (0.2) .5 0 t
429.65 49.26 (0.3) .5 0 t
468.84 49.26 (0.4) .5 0 t
508.03 49.26 (0.5) .5 0 t
547.23 49.26 (0.6) .5 0 t
0.00 0.00 606.00 375.75 cl
0.00 0.00 606.00 375.75 cl
0.00 0.00 606.00 375.75 cl
0.00 0.00 606.00 375.75 cl
0.00 0.00 606.00 375.75 cl
0.00 0.00 606.00 375.75 cl
0.00 0.00 606.00 375.75 cl
0.00 0.00 606.00 375.75 cl
0.00 0.00 606.00 375.75 cl
0.00 0.00 606.00 375.75 cl
/Font2 findfont 20 s
0.3020 0.3020 0.3020 srgb
74.86 73.87 (0.0) 1 0 t
74.86 143.32 (2.5) 1 0 t
74.86 212.77 (5.0) 1 0 t
74.86 282.21 (7.5) 1 0 t
0.00 0.00 606.00 375.75 cl
0.00 0.00 606.00 375.75 cl
0.2000 0.2000 0.2000 srgb
1.07 setlinewidth
[] 0 setdash
0 setlinecap
1 setlinejoin
10.00 setmiterlimit
np
77.05 81.05 m
2.74 0 l
o
np
77.05 150.50 m
2.74 0 l
o
np
77.05 219.95 m
2.74 0 l
o
np
77.05 289.39 m
2.74 0 l
o
0.00 0.00 606.00 375.75 cl
0.00 0.00 606.00 375.75 cl
0.00 0.00 606.00 375.75 cl
0.00 0.00 606.00 375.75 cl
0.00 0.00 606.00 375.75 cl
0.00 0.00 606.00 375.75 cl
0.00 0.00 606.00 375.75 cl
0.00 0.00 606.00 375.75 cl
0.00 0.00 606.00 375.75 cl
0.00 0.00 606.00 375.75 cl
/Font2 findfont 20 s
0 0 0 srgb
259.64 7.86 ( Pr) 0 ta
-0.400 (opor) tb
0.400 (tion) tb gr
0.00 0.00 606.00 375.75 cl
0.00 0.00 606.00 375.75 cl
/Font2 findfont 20 s
0 0 0 srgb
41.44 206.06 ( count) .5 90 t
0.00 0.00 606.00 375.75 cl
0.00 0.00 606.00 375.75 cl
0.00 0.00 606.00 375.75 cl
0.00 0.00 606.00 375.75 cl
0.00 0.00 606.00 375.75 cl
0.00 0.00 606.00 375.75 cl
0.00 0.00 606.00 375.75 cl
0.00 0.00 606.00 375.75 cl
/bg { 1 1 1 srgb } def
558.61 177.01 41.91 58.09 r p2
0.00 0.00 606.00 375.75 cl
0.00 0.00 606.00 375.75 cl
/Font1 findfont 11 s
0 0 0 srgb
564.28 221.55 (Group) 0 0 t
0.00 0.00 606.00 375.75 cl
0.00 0.00 606.00 375.75 cl
/bg { 0.9490 0.9490 0.9490 srgb } def
1 1 1 srgb
1.07 setlinewidth
[] 0 setdash
1 setlinecap
1 setlinejoin
10.00 setmiterlimit
564.28 199.96 17.28 17.28 r p3
0.00 0.00 606.00 375.75 cl
0.00 0.00 606.00 375.75 cl
/bg { 0.9725 0.4627 0.4275 srgb } def
564.99 200.67 15.86 15.86 r p2
0.00 0.00 606.00 375.75 cl
0.00 0.00 606.00 375.75 cl
/bg { 0.9490 0.9490 0.9490 srgb } def
1 1 1 srgb
1.07 setlinewidth
[] 0 setdash
1 setlinecap
1 setlinejoin
10.00 setmiterlimit
564.28 182.68 17.28 17.28 r p3
0.00 0.00 606.00 375.75 cl
0.00 0.00 606.00 375.75 cl
/bg { 0 0.7490 0.7686 srgb } def
564.99 183.39 15.86 15.86 r p2
0.00 0.00 606.00 375.75 cl
0.00 0.00 606.00 375.75 cl
/Font1 findfont 9 s
0 0 0 srgb
583.72 205.37 (A) 0 0 t
0.00 0.00 606.00 375.75 cl
0.00 0.00 606.00 375.75 cl
/Font1 findfont 9 s
0 0 0 srgb
583.72 188.09 (B) 0 0 t
0.00 0.00 606.00 375.75 cl
0.00 0.00 606.00 375.75 cl
0.00 0.00 606.00 375.75 cl
0.00 0.00 606.00 375.75 cl
0.00 0.00 606.00 375.75 cl
0.00 0.00 606.00 375.75 cl
0.00 0.00 606.00 375.75 cl
0.00 0.00 606.00 375.75 cl
0.00 0.00 606.00 375.75 cl
0.00 0.00 606.00 375.75 cl
ep
%%Trailer
%%Pages: 1
%%EOF
