%!PS-Adobe-3.0 EPSF-3.0
%%DocumentNeededResources: font Helvetica
%%+ font Helvetica-Bold
%%+ font Helvetica-Oblique
%%+ font Helvetica-BoldOblique
%%+ font Symbol
%%Title: R Graphics Output
%%Creator: R Software
%%Pages: (atend)
%%BoundingBox: 0 0 606 376
%%EndComments
%%BeginProlog
/bp  { gs sRGB gs } def
% begin .ps.prolog
/gs  { gsave } bind def
/gr  { grestore } bind def
/ep  { showpage gr gr } bind def
/m   { moveto } bind def
/l  { rlineto } bind def
/np  { newpath } bind def
/cp  { closepath } bind def
/f   { fill } bind def
/o   { stroke } bind def
/c   { newpath 0 360 arc } bind def
/r   { 4 2 roll moveto 1 copy 3 -1 roll exch 0 exch rlineto 0 rlineto -1 mul 0 exch rlineto closepath } bind def
/p1  { stroke } bind def
/p2  { gsave bg fill grestore newpath } bind def
/p3  { gsave bg fill grestore stroke } bind def
/p6  { gsave bg eofill grestore newpath } bind def
/p7  { gsave bg eofill grestore stroke } bind def
/t   { 5 -2 roll moveto gsave rotate
       1 index stringwidth pop
       mul neg 0 rmoveto show grestore } bind def
/ta  { 4 -2 roll moveto gsave rotate show } bind def
/tb  { 2 -1 roll 0 rmoveto show } bind def
/cl  { grestore gsave newpath 3 index 3 index moveto 1 index
       4 -1 roll lineto  exch 1 index lineto lineto
       closepath clip newpath } bind def
/rgb { setrgbcolor } bind def
/s   { scalefont setfont } bind def
% end   .ps.prolog
/sRGB { [ /CIEBasedABC
          << /DecodeLMN
               [ { dup 0.03928 le
                        {12.92321 div}
                        {0.055 add 1.055 div 2.4 exp }
                     ifelse
                 } bind dup dup
               ]
             /MatrixLMN [0.412457 0.212673 0.019334
                         0.357576 0.715152 0.119192
                         0.180437 0.072175 0.950301]
             /WhitePoint [0.9505 1.0 1.0890]
           >>
         ] setcolorspace } bind def
/srgb { setcolor } bind def
%%IncludeResource: font Helvetica
/Helvetica findfont
dup length dict begin
  {1 index /FID ne {def} {pop pop} ifelse} forall
  /Encoding ISOLatin1Encoding def
  currentdict
  end
/Font1 exch definefont pop
%%IncludeResource: font Helvetica-Bold
/Helvetica-Bold findfont
dup length dict begin
  {1 index /FID ne {def} {pop pop} ifelse} forall
  /Encoding ISOLatin1Encoding def
  currentdict
  end
/Font2 exch definefont pop
%%IncludeResource: font Helvetica-Oblique
/Helvetica-Oblique findfont
dup length dict begin
  {1 index /FID ne {def} {pop pop} ifelse} forall
  /Encoding ISOLatin1Encoding def
  currentdict
  end
/Font3 exch definefont pop
%%IncludeResource: font Helvetica-BoldOblique
/Helvetica-BoldOblique findfont
dup length dict begin
  {1 index /FID ne {def} {pop pop} ifelse} forall
  /Encoding ISOLatin1Encoding def
  currentdict
  end
/Font4 exch definefont pop
%%IncludeResource: font Symbol
/Symbol findfont
dup length dict begin
  {1 index /FID ne {def} {pop pop} ifelse} forall
  currentdict
  end
/Font5 exch definefont pop
%%EndProlog
%%Page: 1 1
bp
0.00 0.00 606.00 375.75 cl
0.00 0.00 606.00 375.75 cl
0.00 0.00 606.00 375.75 cl
0.00 0.00 606.00 375.75 cl
0.00 0.00 606.00 375.75 cl
0.00 0.00 606.00 375.75 cl
/bg { 1 1 1 srgb } def
1 1 1 srgb
1.07 setlinewidth
[] 0 setdash
1 setlinecap
1 setlinejoin
10.00 setmiterlimit
-0.00 0.00 606.00 375.75 r p3
0.00 0.00 606.00 375.75 cl
90.92 68.55 316.35 343.56 cl
/bg { 0.9216 0.9216 0.9216 srgb } def
90.92 68.55 225.44 275.01 r p2
1 1 1 srgb
0.53 setlinewidth
[] 0 setdash
0 setlinecap
1 setlinejoin
10.00 setmiterlimit
np
90.92 112.30 m
225.43 0 l
o
np
90.92 174.81 m
225.43 0 l
o
np
90.92 237.31 m
225.43 0 l
o
np
90.92 299.81 m
225.43 0 l
o
np
105.94 68.55 m
0 275.01 l
o
np
144.19 68.55 m
0 275.01 l
o
np
182.44 68.55 m
0 275.01 l
o
np
220.69 68.55 m
0 275.01 l
o
np
258.94 68.55 m
0 275.01 l
o
np
297.19 68.55 m
0 275.01 l
o
1.07 setlinewidth
[] 0 setdash
np
90.92 81.05 m
225.43 0 l
o
np
90.92 143.55 m
225.43 0 l
o
np
90.92 206.06 m
225.43 0 l
o
np
90.92 268.56 m
225.43 0 l
o
np
90.92 331.06 m
225.43 0 l
o
np
125.07 68.55 m
0 275.01 l
o
np
163.32 68.55 m
0 275.01 l
o
np
201.56 68.55 m
0 275.01 l
o
np
239.81 68.55 m
0 275.01 l
o
np
278.06 68.55 m
0 275.01 l
o
np
316.31 68.55 m
0 275.01 l
o
/bg { 0.9725 0.4627 0.4275 srgb } def
101.16 81.05 4.10 75.00 r p2
105.26 81.05 4.10 50.00 r p2
109.36 81.05 4.10 100.00 r p2
113.46 81.05 4.10 50.00 r p2
117.56 81.05 4.10 0.00 r p2
121.66 81.05 4.10 25.00 r p2
125.76 81.05 4.10 0.00 r p2
129.86 81.05 4.10 25.00 r p2
133.95 81.05 4.10 50.00 r p2
138.05 81.05 4.10 0.00 r p2
142.15 81.05 4.10 0.00 r p2
146.25 81.05 4.10 75.00 r p2
150.35 81.05 4.10 0.00 r p2
154.45 81.05 4.10 25.00 r p2
158.55 81.05 4.10 0.00 r p2
162.65 81.05 4.10 25.00 r p2
166.75 81.05 4.10 0.00 r p2
170.84 81.05 4.10 25.00 r p2
174.94 81.05 4.10 0.00 r p2
179.04 81.05 4.10 0.00 r p2
183.14 81.05 4.10 0.00 r p2
187.24 81.05 4.10 100.00 r p2
191.34 81.05 4.10 0.00 r p2
195.44 81.05 4.10 75.00 r p2
199.54 81.05 4.10 0.00 r p2
203.64 81.05 4.10 0.00 r p2
207.73 81.05 4.10 0.00 r p2
211.83 81.05 4.10 0.00 r p2
215.93 81.05 4.10 0.00 r p2
220.03 81.05 4.10 125.01 r p2
224.13 81.05 4.10 0.00 r p2
228.23 81.05 4.10 50.00 r p2
232.33 81.05 4.10 0.00 r p2
236.43 81.05 4.10 0.00 r p2
240.53 81.05 4.10 25.00 r p2
244.62 81.05 4.10 0.00 r p2
248.72 81.05 4.10 0.00 r p2
252.82 81.05 4.10 0.00 r p2
256.92 81.05 4.10 50.00 r p2
261.02 81.05 4.10 0.00 r p2
265.12 81.05 4.10 0.00 r p2
269.22 81.05 4.10 0.00 r p2
273.32 81.05 4.10 0.00 r p2
277.42 81.05 4.10 50.00 r p2
281.51 81.05 4.10 0.00 r p2
285.61 81.05 4.10 0.00 r p2
289.71 81.05 4.10 0.00 r p2
293.81 81.05 4.10 0.00 r p2
297.91 81.05 4.10 0.00 r p2
302.01 81.05 4.10 0.00 r p2
/bg { 0 0.7490 0.7686 srgb } def
101.16 81.05 4.10 25.00 r p2
105.26 81.05 4.10 25.00 r p2
109.36 81.05 4.10 125.01 r p2
113.46 81.05 4.10 25.00 r p2
117.56 81.05 4.10 25.00 r p2
121.66 81.05 4.10 75.00 r p2
125.76 81.05 4.10 0.00 r p2
129.86 81.05 4.10 125.01 r p2
133.95 81.05 4.10 25.00 r p2
138.05 81.05 4.10 0.00 r p2
142.15 81.05 4.10 100.00 r p2
146.25 81.05 4.10 75.00 r p2
150.35 81.05 4.10 0.00 r p2
154.45 81.05 4.10 50.00 r p2
158.55 81.05 4.10 0.00 r p2
162.65 81.05 4.10 0.00 r p2
166.75 81.05 4.10 0.00 r p2
170.84 81.05 4.10 75.00 r p2
174.94 81.05 4.10 0.00 r p2
179.04 81.05 4.10 0.00 r p2
183.14 81.05 4.10 0.00 r p2
187.24 81.05 4.10 50.00 r p2
191.34 81.05 4.10 0.00 r p2
195.44 81.05 4.10 0.00 r p2
199.54 81.05 4.10 0.00 r p2
203.64 81.05 4.10 0.00 r p2
207.73 81.05 4.10 100.00 r p2
211.83 81.05 4.10 0.00 r p2
215.93 81.05 4.10 0.00 r p2
220.03 81.05 4.10 25.00 r p2
224.13 81.05 4.10 0.00 r p2
228.23 81.05 4.10 25.00 r p2
232.33 81.05 4.10 0.00 r p2
236.43 81.05 4.10 0.00 r p2
240.53 81.05 4.10 0.00 r p2
244.62 81.05 4.10 0.00 r p2
248.72 81.05 4.10 0.00 r p2
252.82 81.05 4.10 0.00 r p2
256.92 81.05 4.10 25.00 r p2
261.02 81.05 4.10 0.00 r p2
265.12 81.05 4.10 0.00 r p2
269.22 81.05 4.10 0.00 r p2
273.32 81.05 4.10 0.00 r p2
277.42 81.05 4.10 25.00 r p2
281.51 81.05 4.10 0.00 r p2
285.61 81.05 4.10 0.00 r p2
289.71 81.05 4.10 0.00 r p2
293.81 81.05 4.10 0.00 r p2
297.91 81.05 4.10 0.00 r p2
302.01 81.05 4.10 25.00 r p2
0.00 0.00 606.00 375.75 cl
321.83 68.55 547.27 343.56 cl
/bg { 0.9216 0.9216 0.9216 srgb } def
321.83 68.55 225.44 275.01 r p2
1 1 1 srgb
0.53 setlinewidth
[] 0 setdash
0 setlinecap
1 setlinejoin
10.00 setmiterlimit
np
321.83 112.30 m
225.44 0 l
o
np
321.83 174.81 m
225.44 0 l
o
np
321.83 237.31 m
225.44 0 l
o
np
321.83 299.81 m
225.44 0 l
o
np
336.86 68.55 m
0 275.01 l
o
np
375.11 68.55 m
0 275.01 l
o
np
413.36 68.55 m
0 275.01 l
o
np
451.61 68.55 m
0 275.01 l
o
np
489.85 68.55 m
0 275.01 l
o
np
528.10 68.55 m
0 275.01 l
o
1.07 setlinewidth
[] 0 setdash
np
321.83 81.05 m
225.44 0 l
o
np
321.83 143.55 m
225.44 0 l
o
np
321.83 206.06 m
225.44 0 l
o
np
321.83 268.56 m
225.44 0 l
o
np
321.83 331.06 m
225.44 0 l
o
np
355.98 68.55 m
0 275.01 l
o
np
394.23 68.55 m
0 275.01 l
o
np
432.48 68.55 m
0 275.01 l
o
np
470.73 68.55 m
0 275.01 l
o
np
508.98 68.55 m
0 275.01 l
o
np
547.23 68.55 m
0 275.01 l
o
/bg { 0.9725 0.4627 0.4275 srgb } def
332.08 81.05 4.10 0.00 r p2
336.18 81.05 4.10 0.00 r p2
340.28 81.05 4.10 0.00 r p2
344.38 81.05 4.10 0.00 r p2
348.48 81.05 4.10 25.00 r p2
352.58 81.05 4.10 100.00 r p2
356.67 81.05 4.10 75.00 r p2
360.77 81.05 4.10 25.00 r p2
364.87 81.05 4.10 250.01 r p2
368.97 81.05 4.10 100.00 r p2
373.07 81.05 4.10 25.00 r p2
377.17 81.05 4.10 150.01 r p2
381.27 81.05 4.10 0.00 r p2
385.37 81.05 4.10 150.01 r p2
389.47 81.05 4.10 0.00 r p2
393.56 81.05 4.10 75.00 r p2
397.66 81.05 4.10 0.00 r p2
401.76 81.05 4.10 0.00 r p2
405.86 81.05 4.10 0.00 r p2
409.96 81.05 4.10 0.00 r p2
414.06 81.05 4.10 0.00 r p2
418.16 81.05 4.10 25.00 r p2
422.26 81.05 4.10 0.00 r p2
426.35 81.05 4.10 0.00 r p2
430.45 81.05 4.10 0.00 r p2
434.55 81.05 4.10 0.00 r p2
438.65 81.05 4.10 0.00 r p2
442.75 81.05 4.10 0.00 r p2
446.85 81.05 4.10 0.00 r p2
450.95 81.05 4.10 0.00 r p2
455.05 81.05 4.10 0.00 r p2
459.15 81.05 4.10 0.00 r p2
463.24 81.05 4.10 0.00 r p2
467.34 81.05 4.10 0.00 r p2
471.44 81.05 4.10 0.00 r p2
475.54 81.05 4.10 0.00 r p2
479.64 81.05 4.10 0.00 r p2
483.74 81.05 4.10 0.00 r p2
487.84 81.05 4.10 0.00 r p2
491.94 81.05 4.10 0.00 r p2
496.04 81.05 4.10 0.00 r p2
500.13 81.05 4.10 0.00 r p2
504.23 81.05 4.10 0.00 r p2
508.33 81.05 4.10 0.00 r p2
512.43 81.05 4.10 0.00 r p2
516.53 81.05 4.10 0.00 r p2
520.63 81.05 4.10 0.00 r p2
524.73 81.05 4.10 0.00 r p2
528.83 81.05 4.10 0.00 r p2
532.93 81.05 4.10 0.00 r p2
/bg { 0 0.7490 0.7686 srgb } def
332.08 81.05 4.10 0.00 r p2
336.18 81.05 4.10 0.00 r p2
340.28 81.05 4.10 0.00 r p2
344.38 81.05 4.10 0.00 r p2
348.48 81.05 4.10 0.00 r p2
352.58 81.05 4.10 0.00 r p2
356.67 81.05 4.10 25.00 r p2
360.77 81.05 4.10 125.01 r p2
364.87 81.05 4.10 50.00 r p2
368.97 81.05 4.10 50.00 r p2
373.07 81.05 4.10 75.00 r p2
377.17 81.05 4.10 150.01 r p2
381.27 81.05 4.10 0.00 r p2
385.37 81.05 4.10 150.01 r p2
389.47 81.05 4.10 0.00 r p2
393.56 81.05 4.10 50.00 r p2
397.66 81.05 4.10 0.00 r p2
401.76 81.05 4.10 100.00 r p2
405.86 81.05 4.10 0.00 r p2
409.96 81.05 4.10 0.00 r p2
414.06 81.05 4.10 0.00 r p2
418.16 81.05 4.10 125.01 r p2
422.26 81.05 4.10 0.00 r p2
426.35 81.05 4.10 0.00 r p2
430.45 81.05 4.10 0.00 r p2
434.55 81.05 4.10 0.00 r p2
438.65 81.05 4.10 100.00 r p2
442.75 81.05 4.10 0.00 r p2
446.85 81.05 4.10 0.00 r p2
450.95 81.05 4.10 0.00 r p2
455.05 81.05 4.10 0.00 r p2
459.15 81.05 4.10 0.00 r p2
463.24 81.05 4.10 0.00 r p2
467.34 81.05 4.10 0.00 r p2
471.44 81.05 4.10 25.00 r p2
475.54 81.05 4.10 0.00 r p2
479.64 81.05 4.10 0.00 r p2
483.74 81.05 4.10 0.00 r p2
487.84 81.05 4.10 0.00 r p2
491.94 81.05 4.10 0.00 r p2
496.04 81.05 4.10 0.00 r p2
500.13 81.05 4.10 0.00 r p2
504.23 81.05 4.10 0.00 r p2
508.33 81.05 4.10 0.00 r p2
512.43 81.05 4.10 0.00 r p2
516.53 81.05 4.10 0.00 r p2
520.63 81.05 4.10 0.00 r p2
524.73 81.05 4.10 0.00 r p2
528.83 81.05 4.10 0.00 r p2
532.93 81.05 4.10 0.00 r p2
0.00 0.00 606.00 375.75 cl
90.92 343.56 316.35 370.27 cl
90.92 343.56 316.35 370.27 cl
/bg { 0.8510 0.8510 0.8510 srgb } def
90.92 343.56 225.44 26.71 r p2
/Font2 findfont 22 s
0.1020 0.1020 0.1020 srgb
203.64 349.02 (Ingredient b) .5 0 t
90.92 343.56 316.35 370.27 cl
90.92 343.56 316.35 370.27 cl
0.00 0.00 606.00 375.75 cl
321.83 343.56 547.27 370.27 cl
321.83 343.56 547.27 370.27 cl
/bg { 0.8510 0.8510 0.8510 srgb } def
321.83 343.56 225.44 26.71 r p2
/Font2 findfont 22 s
0.1020 0.1020 0.1020 srgb
434.55 349.02 (Ingredient e) .5 0 t
321.83 343.56 547.27 370.27 cl
321.83 343.56 547.27 370.27 cl
0.00 0.00 606.00 375.75 cl
0.00 0.00 606.00 375.75 cl
0.00 0.00 606.00 375.75 cl
0.00 0.00 606.00 375.75 cl
0.00 0.00 606.00 375.75 cl
0.00 0.00 606.00 375.75 cl
0.00 0.00 606.00 375.75 cl
0.00 0.00 606.00 375.75 cl
0.00 0.00 606.00 375.75 cl
0.00 0.00 606.00 375.75 cl
0.2000 0.2000 0.2000 srgb
1.07 setlinewidth
[] 0 setdash
0 setlinecap
1 setlinejoin
10.00 setmiterlimit
np
125.07 65.81 m
0 2.74 l
o
np
163.32 65.81 m
0 2.74 l
o
np
201.56 65.81 m
0 2.74 l
o
np
239.81 65.81 m
0 2.74 l
o
np
278.06 65.81 m
0 2.74 l
o
np
316.31 65.81 m
0 2.74 l
o
0.00 0.00 606.00 375.75 cl
0.00 0.00 606.00 375.75 cl
/Font2 findfont 20 s
0.3020 0.3020 0.3020 srgb
125.07 49.26 (0.1) .5 0 t
163.32 49.26 (0.2) .5 0 t
201.56 49.26 (0.3) .5 0 t
239.81 49.26 (0.4) .5 0 t
278.06 49.26 (0.5) .5 0 t
316.31 49.26 (0.6) .5 0 t
0.00 0.00 606.00 375.75 cl
0.00 0.00 606.00 375.75 cl
0.00 0.00 606.00 375.75 cl
0.00 0.00 606.00 375.75 cl
0.00 0.00 606.00 375.75 cl
0.00 0.00 606.00 375.75 cl
0.00 0.00 606.00 375.75 cl
0.00 0.00 606.00 375.75 cl
0.2000 0.2000 0.2000 srgb
1.07 setlinewidth
[] 0 setdash
0 setlinecap
1 setlinejoin
10.00 setmiterlimit
np
355.98 65.81 m
0 2.74 l
o
np
394.23 65.81 m
0 2.74 l
o
np
432.48 65.81 m
0 2.74 l
o
np
470.73 65.81 m
0 2.74 l
o
np
508.98 65.81 m
0 2.74 l
o
np
547.23 65.81 m
0 2.74 l
o
0.00 0.00 606.00 375.75 cl
0.00 0.00 606.00 375.75 cl
/Font2 findfont 20 s
0.3020 0.3020 0.3020 srgb
355.98 49.26 (0.1) .5 0 t
394.23 49.26 (0.2) .5 0 t
432.48 49.26 (0.3) .5 0 t
470.73 49.26 (0.4) .5 0 t
508.98 49.26 (0.5) .5 0 t
547.23 49.26 (0.6) .5 0 t
0.00 0.00 606.00 375.75 cl
0.00 0.00 606.00 375.75 cl
0.00 0.00 606.00 375.75 cl
0.00 0.00 606.00 375.75 cl
0.00 0.00 606.00 375.75 cl
0.00 0.00 606.00 375.75 cl
0.00 0.00 606.00 375.75 cl
0.00 0.00 606.00 375.75 cl
0.00 0.00 606.00 375.75 cl
0.00 0.00 606.00 375.75 cl
/Font2 findfont 20 s
0.3020 0.3020 0.3020 srgb
85.99 73.87 (0.0) 1 0 t
85.99 136.37 (2.5) 1 0 t
85.99 198.88 (5.0) 1 0 t
85.99 261.38 (7.5) 1 0 t
85.99 323.88 (10.0) 1 0 t
0.00 0.00 606.00 375.75 cl
0.00 0.00 606.00 375.75 cl
0.2000 0.2000 0.2000 srgb
1.07 setlinewidth
[] 0 setdash
0 setlinecap
1 setlinejoin
10.00 setmiterlimit
np
88.18 81.05 m
2.74 0 l
o
np
88.18 143.55 m
2.74 0 l
o
np
88.18 206.06 m
2.74 0 l
o
np
88.18 268.56 m
2.74 0 l
o
np
88.18 331.06 m
2.74 0 l
o
0.00 0.00 606.00 375.75 cl
0.00 0.00 606.00 375.75 cl
0.00 0.00 606.00 375.75 cl
0.00 0.00 606.00 375.75 cl
0.00 0.00 606.00 375.75 cl
0.00 0.00 606.00 375.75 cl
0.00 0.00 606.00 375.75 cl
0.00 0.00 606.00 375.75 cl
0.00 0.00 606.00 375.75 cl
0.00 0.00 606.00 375.75 cl
/Font2 findfont 20 s
0 0 0 srgb
265.20 7.86 ( Pr) 0 ta
-0.400 (opor) tb
0.400 (tion) tb gr
0.00 0.00 606.00 375.75 cl
0.00 0.00 606.00 375.75 cl
/Font2 findfont 20 s
0 0 0 srgb
41.44 206.06 ( count) .5 90 t
0.00 0.00 606.00 375.75 cl
0.00 0.00 606.00 375.75 cl
0.00 0.00 606.00 375.75 cl
0.00 0.00 606.00 375.75 cl
0.00 0.00 606.00 375.75 cl
0.00 0.00 606.00 375.75 cl
0.00 0.00 606.00 375.75 cl
0.00 0.00 606.00 375.75 cl
/bg { 1 1 1 srgb } def
558.61 177.01 41.91 58.09 r p2
0.00 0.00 606.00 375.75 cl
0.00 0.00 606.00 375.75 cl
/Font1 findfont 11 s
0 0 0 srgb
564.28 221.55 (Group) 0 0 t
0.00 0.00 606.00 375.75 cl
0.00 0.00 606.00 375.75 cl
/bg { 0.9490 0.9490 0.9490 srgb } def
1 1 1 srgb
1.07 setlinewidth
[] 0 setdash
1 setlinecap
1 setlinejoin
10.00 setmiterlimit
564.28 199.96 17.28 17.28 r p3
0.00 0.00 606.00 375.75 cl
0.00 0.00 606.00 375.75 cl
/bg { 0.9725 0.4627 0.4275 srgb } def
564.99 200.67 15.86 15.86 r p2
0.00 0.00 606.00 375.75 cl
0.00 0.00 606.00 375.75 cl
/bg { 0.9490 0.9490 0.9490 srgb } def
1 1 1 srgb
1.07 setlinewidth
[] 0 setdash
1 setlinecap
1 setlinejoin
10.00 setmiterlimit
564.28 182.68 17.28 17.28 r p3
0.00 0.00 606.00 375.75 cl
0.00 0.00 606.00 375.75 cl
/bg { 0 0.7490 0.7686 srgb } def
564.99 183.39 15.86 15.86 r p2
0.00 0.00 606.00 375.75 cl
0.00 0.00 606.00 375.75 cl
/Font1 findfont 9 s
0 0 0 srgb
583.72 205.37 (C) 0 0 t
0.00 0.00 606.00 375.75 cl
0.00 0.00 606.00 375.75 cl
/Font1 findfont 9 s
0 0 0 srgb
583.72 188.09 (D) 0 0 t
0.00 0.00 606.00 375.75 cl
0.00 0.00 606.00 375.75 cl
0.00 0.00 606.00 375.75 cl
0.00 0.00 606.00 375.75 cl
0.00 0.00 606.00 375.75 cl
0.00 0.00 606.00 375.75 cl
0.00 0.00 606.00 375.75 cl
0.00 0.00 606.00 375.75 cl
0.00 0.00 606.00 375.75 cl
0.00 0.00 606.00 375.75 cl
ep
%%Trailer
%%Pages: 1
%%EOF
