# Fdb version 3
["xdvipdfmx"] 1522313358 "sii-template-draft.xdv" "sii-template-draft.pdf" "sii-template-draft" 1522313359
  "sii-template-draft.xdv" 1522313358 249276 11ecec8775db2892b84a84e8c5038549 "xelatex"
  (generated)
  "sii-template-draft.pdf"
["xelatex"] 1522313357 "sii-template-draft.tex" "sii-template-draft.xdv" "sii-template-draft" 1522313359
  "/usr/local/texlive/2017/texmf-dist/fonts/map/fontname/texfonts.map" 1480098670 3287 e6b82fe08f5336d4d5ebc73fb1152e87 ""
  "/usr/local/texlive/2017/texmf-dist/fonts/tfm/public/amsfonts/cmextra/cmbsy5.tfm" 1480098698 1120 1e8878807317373affa7f7bba4cf2f6a ""
  "/usr/local/texlive/2017/texmf-dist/fonts/tfm/public/amsfonts/cmextra/cmbsy6.tfm" 1480098698 1124 14ccf5552bc7f77ca02a8a402bea8bfb ""
  "/usr/local/texlive/2017/texmf-dist/fonts/tfm/public/amsfonts/cmextra/cmbsy7.tfm" 1480098698 1120 7f9f170e8aa57527ad6c49feafd45d54 ""
  "/usr/local/texlive/2017/texmf-dist/fonts/tfm/public/amsfonts/cmextra/cmbsy8.tfm" 1480098698 1120 200be8b775682cdf80acad4be5ef57e4 ""
  "/usr/local/texlive/2017/texmf-dist/fonts/tfm/public/amsfonts/cmextra/cmbsy9.tfm" 1480098698 1112 cbc11b646ccc26599775160605aaee3a ""
  "/usr/local/texlive/2017/texmf-dist/fonts/tfm/public/amsfonts/cmextra/cmmib5.tfm" 1480098698 1496 c79f6914c6d39ffb3759967363d1be79 ""
  "/usr/local/texlive/2017/texmf-dist/fonts/tfm/public/amsfonts/cmextra/cmmib6.tfm" 1480098698 1516 a3bf6a5e7ec4401b1f52092dfaaed242 ""
  "/usr/local/texlive/2017/texmf-dist/fonts/tfm/public/amsfonts/cmextra/cmmib7.tfm" 1480098698 1508 6e807ff901c35a5f1fde0ca275533df8 ""
  "/usr/local/texlive/2017/texmf-dist/fonts/tfm/public/amsfonts/cmextra/cmmib8.tfm" 1480098698 1528 dab402b9d3774ca98baa037071cee7ae ""
  "/usr/local/texlive/2017/texmf-dist/fonts/tfm/public/amsfonts/cmextra/cmmib9.tfm" 1480098698 1528 159d57adcba064aab4277245c826577d ""
  "/usr/local/texlive/2017/texmf-dist/fonts/tfm/public/cm/cmbsy10.tfm" 1480098701 1116 4e6ba9d7914baa6482fd69f67d126380 ""
  "/usr/local/texlive/2017/texmf-dist/fonts/tfm/public/cm/cmbx10.tfm" 1480098701 1328 c834bbb027764024c09d3d2bf908b5f0 ""
  "/usr/local/texlive/2017/texmf-dist/fonts/tfm/public/cm/cmbx12.tfm" 1480098701 1324 c910af8c371558dc20f2d7822f66fe64 ""
  "/usr/local/texlive/2017/texmf-dist/fonts/tfm/public/cm/cmbx5.tfm" 1480098701 1332 f817c21a1ba54560425663374f1b651a ""
  "/usr/local/texlive/2017/texmf-dist/fonts/tfm/public/cm/cmbx6.tfm" 1480098701 1344 8a0be4fe4d376203000810ad4dc81558 ""
  "/usr/local/texlive/2017/texmf-dist/fonts/tfm/public/cm/cmbx7.tfm" 1480098701 1336 3125ccb448c1a09074e3aa4a9832f130 ""
  "/usr/local/texlive/2017/texmf-dist/fonts/tfm/public/cm/cmbx8.tfm" 1480098701 1332 1fde11373e221473104d6cc5993f046e ""
  "/usr/local/texlive/2017/texmf-dist/fonts/tfm/public/cm/cmbx9.tfm" 1480098701 1328 5442e22a7072966dbaf88ca900acf3f0 ""
  "/usr/local/texlive/2017/texmf-dist/fonts/tfm/public/cm/cmmi12.tfm" 1480098701 1524 4414a8315f39513458b80dfc63bff03a ""
  "/usr/local/texlive/2017/texmf-dist/fonts/tfm/public/cm/cmmi6.tfm" 1480098701 1512 f21f83efb36853c0b70002322c1ab3ad ""
  "/usr/local/texlive/2017/texmf-dist/fonts/tfm/public/cm/cmmi8.tfm" 1480098701 1520 eccf95517727cb11801f4f1aee3a21b4 ""
  "/usr/local/texlive/2017/texmf-dist/fonts/tfm/public/cm/cmmi9.tfm" 1480098701 1524 d89e2d087a9828407a196f428428ef4a ""
  "/usr/local/texlive/2017/texmf-dist/fonts/tfm/public/cm/cmmib10.tfm" 1480098701 1524 554068197b70979a55370e6c6495f441 ""
  "/usr/local/texlive/2017/texmf-dist/fonts/tfm/public/cm/cmr12.tfm" 1480098701 1288 655e228510b4c2a1abe905c368440826 ""
  "/usr/local/texlive/2017/texmf-dist/fonts/tfm/public/cm/cmr6.tfm" 1480098701 1300 b62933e007d01cfd073f79b963c01526 ""
  "/usr/local/texlive/2017/texmf-dist/fonts/tfm/public/cm/cmr8.tfm" 1480098701 1292 21c1c5bfeaebccffdb478fd231a0997d ""
  "/usr/local/texlive/2017/texmf-dist/fonts/tfm/public/cm/cmr9.tfm" 1480098701 1292 6b21b9c2c7bebb38aa2273f7ca0fb3af ""
  "/usr/local/texlive/2017/texmf-dist/fonts/tfm/public/cm/cmsy10.tfm" 1480098701 1124 6c73e740cf17375f03eec0ee63599741 ""
  "/usr/local/texlive/2017/texmf-dist/fonts/tfm/public/cm/cmsy6.tfm" 1480098701 1116 933a60c408fc0a863a92debe84b2d294 ""
  "/usr/local/texlive/2017/texmf-dist/fonts/tfm/public/cm/cmsy8.tfm" 1480098701 1120 8b7d695260f3cff42e636090a8002094 ""
  "/usr/local/texlive/2017/texmf-dist/fonts/tfm/public/cm/cmsy9.tfm" 1480098701 1116 25a7bf822c58caf309a702ef79f4afbb ""
  "/usr/local/texlive/2017/texmf-dist/tex/generic/ifxetex/ifxetex.sty" 1480098815 1458 43ab4710dc82f3edeabecd0d099626b2 ""
  "/usr/local/texlive/2017/texmf-dist/tex/generic/oberdiek/etexcmds.sty" 1480098815 7612 729a8cc22a1ee0029997c7f74717ae05 ""
  "/usr/local/texlive/2017/texmf-dist/tex/generic/oberdiek/ifluatex.sty" 1480098815 7324 2310d1247db0114eb4726807c8837a0e ""
  "/usr/local/texlive/2017/texmf-dist/tex/generic/oberdiek/ifpdf.sty" 1490564930 1251 d170e11a3246c3392bc7f59595af42cb ""
  "/usr/local/texlive/2017/texmf-dist/tex/generic/oberdiek/ifvtex.sty" 1480098815 6797 90b7f83b0ad46826bc16058b1e3d48df ""
  "/usr/local/texlive/2017/texmf-dist/tex/generic/oberdiek/infwarerr.sty" 1480098815 8253 473e0e41f9adadb1977e8631b8f72ea6 ""
  "/usr/local/texlive/2017/texmf-dist/tex/generic/oberdiek/kvdefinekeys.sty" 1480098815 5152 b67a3a964ad9851e095110c854a1d461 ""
  "/usr/local/texlive/2017/texmf-dist/tex/generic/oberdiek/kvsetkeys.sty" 1480098815 14040 ac8866aac45982ac84021584b0abb252 ""
  "/usr/local/texlive/2017/texmf-dist/tex/generic/oberdiek/ltxcmds.sty" 1480098815 18425 5b3c0c59d76fac78978b5558e83c1f36 ""
  "/usr/local/texlive/2017/texmf-dist/tex/generic/oberdiek/pdftexcmds.sty" 1490564930 20151 72b3c7cacb61f7dd527505c39a23f7c1 ""
  "/usr/local/texlive/2017/texmf-dist/tex/latex/amscls/amsthm.sty" 1480098820 12225 3cca0d18522255979a1047206228b9d0 ""
  "/usr/local/texlive/2017/texmf-dist/tex/latex/amsmath/amsbsy.sty" 1480098820 2210 5c54ab129b848a5071554186d0168766 ""
  "/usr/local/texlive/2017/texmf-dist/tex/latex/amsmath/amsgen.sty" 1480098820 4160 c115536cf8d4ff25aa8c1c9bc4ecb79a ""
  "/usr/local/texlive/2017/texmf-dist/tex/latex/amsmath/amsmath.sty" 1485129665 84329 81aa65c5042562f79cb421feff9b8bdc ""
  "/usr/local/texlive/2017/texmf-dist/tex/latex/amsmath/amsopn.sty" 1480098820 4115 318a66090112f3aa3f415aeb6fe8540f ""
  "/usr/local/texlive/2017/texmf-dist/tex/latex/amsmath/amstext.sty" 1480098820 2431 fe3078ec12fc30287f568596f8e0b948 ""
  "/usr/local/texlive/2017/texmf-dist/tex/latex/appendix/appendix.sty" 1480098820 8526 d0d9b5e2dd0c996c69c3bd05eb25b943 ""
  "/usr/local/texlive/2017/texmf-dist/tex/latex/base/article.cls" 1480098821 19821 310da678527a7dfe2a02c88af38079b7 ""
  "/usr/local/texlive/2017/texmf-dist/tex/latex/base/leqno.clo" 1485129665 1959 e8e0f37d095dcbe4c048e0d270dc9d0f ""
  "/usr/local/texlive/2017/texmf-dist/tex/latex/base/size10.clo" 1480098821 8292 e897c12e1e886ce77fe26afc5d470886 ""
  "/usr/local/texlive/2017/texmf-dist/tex/latex/booktabs/booktabs.sty" 1480098823 5869 94335281ffcab47f341cf07ea8220e30 ""
  "/usr/local/texlive/2017/texmf-dist/tex/latex/etoolbox/etoolbox.sty" 1483484472 42324 d951db30d0cb2b811f084fa3f92aec16 ""
  "/usr/local/texlive/2017/texmf-dist/tex/latex/fancyhdr/fancyhdr.sty" 1480098827 22494 ab2f238426db63334832f85a72ef1f3b ""
  "/usr/local/texlive/2017/texmf-dist/tex/latex/geometry/geometry.sty" 1480098829 40502 e003406220954b0716679d7928aedd8a ""
  "/usr/local/texlive/2017/texmf-dist/tex/latex/graphics-cfg/graphics.cfg" 1480098830 1224 978390e9c2234eab29404bc21b268d1e ""
  "/usr/local/texlive/2017/texmf-dist/tex/latex/graphics-def/xetex.def" 1485129666 21966 ed359f6c6c81a1c024b31a1bd86d1b4a ""
  "/usr/local/texlive/2017/texmf-dist/tex/latex/graphics/graphics.sty" 1492297155 14603 b288c52bd5d46d593af31dbc7e548236 ""
  "/usr/local/texlive/2017/texmf-dist/tex/latex/graphics/graphicx.sty" 1480098830 8125 557ab9f1bfa80d369fb45a914aa8a3b4 ""
  "/usr/local/texlive/2017/texmf-dist/tex/latex/graphics/keyval.sty" 1480098830 2594 d18d5e19aa8239cf867fa670c556d2e9 ""
  "/usr/local/texlive/2017/texmf-dist/tex/latex/graphics/trig.sty" 1480098830 3980 0a268fbfda01e381fa95821ab13b6aee ""
  "/usr/local/texlive/2017/texmf-dist/tex/latex/multirow/multirow.sty" 1480201744 5015 cd8d25106b58dfc16af57528a07d0bc9 ""
  "/usr/local/texlive/2017/texmf-dist/tex/latex/oberdiek/epstopdf-base.sty" 1480098836 12095 5337833c991d80788a43d3ce26bd1c46 ""
  "/usr/local/texlive/2017/texmf-dist/tex/latex/oberdiek/epstopdf.sty" 1480098836 4167 fc50b4e5b185008bb9308b1ea4ce64d4 ""
  "/usr/local/texlive/2017/texmf-dist/tex/latex/oberdiek/grfext.sty" 1480098836 7075 2fe3d848bba95f139de11ded085e74aa ""
  "/usr/local/texlive/2017/texmf-dist/tex/latex/oberdiek/kvoptions.sty" 1480098836 22417 1d9df1eb66848aa31b18a593099cf45c ""
  "/usr/local/texlive/2017/texmf-dist/tex/latex/setspace/setspace.sty" 1521862008 22899 455aec2c6d0077536ffc4cd79e5e15fe ""
  "/usr/local/texlive/2017/texmf-dist/tex/latex/sttools/flushend.sty" 1491281624 32965 b8b3944582c948eb8dd7c6f4a0e26444 ""
  "/usr/local/texlive/2017/texmf-dist/tex/latex/sttools/stfloats.sty" 1491281624 24057 a5144c910597201d42c92bacb893a380 ""
  "/usr/local/texlive/2017/texmf-dist/tex/latex/subfigure/subfigure.cfg" 1480098839 2062 a0e7d66e09e508f51289a656aec06ed2 ""
  "/usr/local/texlive/2017/texmf-dist/tex/latex/subfigure/subfigure.sty" 1480098839 15188 91281c7ddbccfa54a8e0c3b56ab5aa72 ""
  "/usr/local/texlive/2017/texmf-dist/tex/latex/tools/bm.sty" 1485129666 12628 f9caa46b01869ce6fad7de6138318b70 ""
  "/usr/local/texlive/2017/texmf-dist/tex/latex/tools/indentfirst.sty" 1480098841 1617 820bc46185ca5aeeda2ecc6c21866b18 ""
  "/usr/local/texlive/2017/texmf-dist/web2c/texmf.cnf" 1494087824 32646 eadc4ca26cdbe7105ac7c593aa8c4f72 ""
  "/usr/local/texlive/2017/texmf-var/web2c/xetex/xelatex.fmt" 1511772388 3678534 5f223579e4aea318b09d20a2c1f17c22 ""
  "/usr/local/texlive/2017/texmf.cnf" 1495593465 577 2b71d4d888f9e5560b2e99985915a9fa ""
  "AB.eps" 1522066024 15732 d698fe860b9c751a55f17c3542cfcece ""
  "CD.eps" 1522065971 15865 2f8a2708f3ace3e3b5b22414a0cb3248 ""
  "asymptotic_property.tex" 1522238892 2451 5eda0e4ae865a63c1fafe37f4550bca5 ""
  "bibio_item.tex" 1521807082 2930 a20c734caf205d7db4be5610f56d3d3b ""
  "first_abstract.tex" 1522243832 677 0dbe36cde0ccae6f62a40b45d44ed677 ""
  "imsart-generic.cnf" 0 -1 0 ""
  "imsart.cnf" 0 -1 0 ""
  "imsart.sty" 1437441014 105123 fb6703a884b9e774586ae60f3fb55d8e ""
  "introduction.tex" 1522242023 4344 4a5e6455daae4e0027722875089c5ebd ""
  "ipart-sii.cnf" 0 -1 0 ""
  "ipart.cls" 1521861969 30287 2f40c9b9d9aafff79c4359e5d8924265 ""
  "multivariate_imbalance_test.tex" 1521986155 2114 470bef1a9a1e4e1e4e99da62b9e880a8 ""
  "realdata_analysis.tex" 1522242315 4318 9043c7ecedfafdea2fa58401be7c87db ""
  "sii-template-draft.aux" 1522313358 3253 6ef7b875f0aca530858fdc19a8d7cf66 ""
  "sii-template-draft.tex" 1522242339 3369 b8cb98134ec074dc70ffc0828cebde45 ""
  "simulation_design2.tex" 1522288791 8571 b9107e5038b93942e70b8d9d90ec91ee ""
  "simulation_result3.tex" 1522313191 4339 36a962b983446c2fab2b355da0edd9d5 ""
  "summary3.tex" 1521635166 2987 c6fe43fd0f59ab64f805b0c2e451f8a3 ""
  "theorem_asym33.tex" 1521986155 6792 fd8f3a5369cbc1a1c252945f02f86738 ""
  "theorem_consistent31.tex" 1522238893 523 a30aa6a2ca5608401165d7047ea9bb71 ""
  "theorem_null_distribution33.tex" 1522238893 12074 da6c487cafbacc1aa257f8165123f846 ""
  "weighted_test2.tex" 1522242217 3117 61fac84ce65516fb8443f58476f3ed81 ""
  (generated)
  "sii-template-draft.log"
  "sii-template-draft.aux"
  "sii-template-draft.xdv"
